{
    "N focal": 400,
    "N modes": 13,
    "N pupil": 600,
    "alignment error": [
        null
    ],
    "background": [
        52.659420923776665
    ],
    "estimate background": "True",
    "estimate leakage": "True",
    "estimate mask transmission": "False",
    "estimate photon number": "True",
    "estimate polarization degree": "True",
    "file pup amplitude": "None",
    "include alignment errors": "False",
    "iteration time (sec)": [
        39.8263053894043
    ],
    "leakage": [
        0.01042736801243433
    ],
    "mas / pix": 3730.0,
    "mask transmission": [
        1
    ],
    "minimization tolerance": 0.0001,
    "oversampling factor": 1,
    "photon number": [
        12336313.312984822
    ],
    "polarization degree": [
        -0.40908583560198547
    ],
    "power regularization": -3.0,
    "rotation angle (deg)": -5,
    "use analytical jacobian": "True",
    "use pup amplitude measurement": "False",
    "used mode basis": "zernike"
}