1.233631331268780679e+07
5.094483050325507634e+01
4.285411486767490841e-01
-7.864043522387519358e-01
5.157439402777752946e+01
3.795344783556571855e+01
-1.860110560687002845e+01
1.751140086222385861e+01
5.077387173133606879e+00
1.335151791484317130e+01
1.166080490578414341e+01
3.351810446447436931e+01
-3.216645523535043338e+01
3.306340238027109990e+01
