0.000000000000000000e+00
0.000000000000000000e+00
0.000000000000000000e+00
0.000000000000000000e+00
0.000000000000000000e+00
0.000000000000000000e+00
-4.436445678452433095e-01
-9.853260204556496538e-02
1.388386402645054030e-01
1.962630953825501290e-01
1.945850383203451828e-01
0.000000000000000000e+00
0.000000000000000000e+00
-2.300624525174582991e-01
-4.777517533825056950e-02
5.824289513694670684e-02
4.004696095951266327e-03
-1.689316225853686460e-01
-3.907578104400842856e-01
-4.173966024199663449e-01
0.000000000000000000e+00
0.000000000000000000e+00
-1.341613184303221407e-01
-1.177714707893478541e-01
7.495142542479119041e-02
8.341700355983917847e-02
4.582431536889326057e-03
-1.118177456774519657e-01
-2.526878015116683640e-01
-2.552242291427087584e-01
2.156024832378728995e-01
0.000000000000000000e+00
0.000000000000000000e+00
-3.368939490635247114e-01
-1.468524517692199882e-01
7.791897468137120100e-03
-4.495105516211780894e-03
-4.967498747561448907e-02
-1.016314866234573067e-01
-1.678627114173825152e-01
-1.069617372562814694e-01
3.225231909099522398e-01
0.000000000000000000e+00
0.000000000000000000e+00
-2.914866062796510060e-01
-1.214993072087346276e-01
-1.076249369847221901e-03
-2.309104276813538775e-02
-8.259430202228680573e-02
-1.631881465795946007e-01
-2.431492028437925723e-01
-1.608912762156594622e-01
2.206411389536074574e-01
0.000000000000000000e+00
0.000000000000000000e+00
-8.264581271527934869e-02
-9.050439579353832670e-03
9.119469195388101024e-02
5.507292192782357876e-02
-5.813187311563618176e-02
-2.102442716947986179e-01
-3.149060328596021141e-01
-1.951757235758461995e-01
9.238958397782340293e-02
0.000000000000000000e+00
0.000000000000000000e+00
1.195597170154739375e-01
4.803403327060000449e-02
1.441175973777091834e-01
1.193404195344941326e-01
-7.760141313844452944e-03
-1.562377403768958617e-01
-1.821863758341027983e-01
2.736814843740045453e-02
2.654345822218768386e-02
0.000000000000000000e+00
0.000000000000000000e+00
-5.229213241007691151e-03
7.390003272613618335e-02
9.930690719226718810e-02
4.709809496544546670e-02
2.338314674132658741e-02
1.519296669444810677e-01
2.998251356569423542e-01
0.000000000000000000e+00
0.000000000000000000e+00
1.372972520006365271e-01
1.304538868576815835e-01
1.033765104314366967e-01
1.030305021361520440e-01
5.666129895074444034e-02
0.000000000000000000e+00
0.000000000000000000e+00
0.000000000000000000e+00
0.000000000000000000e+00
0.000000000000000000e+00
0.000000000000000000e+00
