9.678723500459134579e+06
9.565750660675366390e+00
9.354714622640388985e-03
6.269437492655146812e-04
-4.492691768855058658e-03
-3.264691306582315766e-01
2.660676561517958394e-01
2.072466547231534839e-01
3.755975227713260201e-01
2.105101696934113531e-01
1.611202619750001508e-01
-8.997218138564279377e-02
2.677580982426384579e-02
-1.714173748383367446e-01
