{
    "N focal": 400,
    "N modes": 10,
    "N pupil": 300,
    "alignment error": [
        null
    ],
    "background": [
        52.639068598653104
    ],
    "estimate background": "True",
    "estimate leakage": "True",
    "estimate mask transmission": "False",
    "estimate photon number": "True",
    "estimate polarization degree": "True",
    "file pup amplitude": "None",
    "include alignment errors": "False",
    "iteration time (sec)": [
        17.74835467338562
    ],
    "leakage": [
        0.0066579141015360565
    ],
    "mas / pix": 3730.0,
    "mask transmission": [
        1
    ],
    "minimization tolerance": 0.0001,
    "oversampling factor": 1,
    "photon number": [
        12336313.312984746
    ],
    "polarization degree": [
        -0.4919931428598298
    ],
    "power regularization": -3.0,
    "rotation angle (deg)": -5,
    "use analytical jacobian": "True",
    "use pup amplitude measurement": "False",
    "used mode basis": "zernike"
}